{
  "version": 2,
  "builds": [
    {
      "src": "nuxt.config.js",
      "use": "@nuxtjs/vercel-builder",
      "config": {
        "serverFiles": [
          "package.json",
          "api/index.ts",
          "server-middleware/api.ts"
        ],
        "tscOptions": {
          "sourceMap": false
        }
      }
    },
    {
      "src": "api/index.ts",
      "use": "@vercel/node"
    }
  ],
  "routes": [
    {
      "src": "/api/contact-us",
      "dest": "/api/index.ts",
      "methods": [
        "POST",
        "OPTIONS"
      ],
      "headers": {
        "Access-Control-Allow-Methods": "GET,POST",
        "Access-Control-Allow-Headers": "Content-Type"
      }
    },
    {
      "src": "/sw.js",
      "continue": true,
      "headers": {
        "Cache-Control": "public, max-age=0, must-revalidate",
        "Service-Worker-Allowed": "/"
      }
    }
  ]
}
