<svg width="416" height="756" viewBox="0 0 416 756" fill="none" xmlns="http://www.w3.org/2000/svg">
<g opacity="0.14">
<path d="M283.73 0.999939L1.00012 189.487M283.73 378.246L1.00012 189.759M285.355 377.973L2.62499 566.46M283.73 755.219L1.0001 566.733" stroke="#28BEE0"/>
<path d="M316.228 1.00018L33.4977 189.487M316.228 378.246L33.4977 189.76M317.853 377.973L35.1225 566.46M316.228 755.219L33.4977 566.733" stroke="#F9D03F"/>
<path d="M348.726 1.00024L65.9957 189.487M348.726 378.246L65.9957 189.76M350.351 377.973L67.6206 566.46M348.726 755.22L65.9957 566.733" stroke="#286DAD"/>
<path d="M381.223 1.00037L98.4928 189.487M381.223 378.246L98.4928 189.76M382.848 377.974L100.118 566.46M381.223 755.22L98.4928 566.733" stroke="#1DBE84"/>
<path d="M413.721 1.00061L130.991 189.487M413.721 378.247L130.991 189.76M415.346 377.974L132.616 566.46M413.721 755.22L130.991 566.733" stroke="#568B91"/>
</g>
</svg>
