<svg width="26" height="25" viewBox="0 0 26 25" fill="none" xmlns="http://www.w3.org/2000/svg">
<circle cx="13.2485" cy="12.2515" r="11.7515" fill="white" stroke="#4477C4"/>
<path d="M15.629 15.1485C20.857 11.6024 19.0664 7.84264 19.0664 7.84264C19.0664 7.84264 17.5661 7.81001 16.8637 8.15112C16.237 8.45546 15.2446 9.54972 15.2446 9.54972L16.4675 10.8454C16.4675 10.8454 15.3783 12.4189 14.3869 13.1061C13.3955 13.7932 11.2022 14.2432 11.2022 14.2432L10.6367 12.5547C10.6367 12.5547 9.23497 12.455 8.45435 12.9777C7.67374 13.5004 7.13477 14.8955 7.13477 14.8955C7.13477 14.8955 10.4009 18.6946 15.629 15.1485Z" fill="#4477C4"/>
</svg>
