<svg width="29" height="29" viewBox="0 0 29 29" fill="none" xmlns="http://www.w3.org/2000/svg">
<path d="M0 14.5C0 6.49187 6.49187 0 14.5 0C22.5081 0 29 6.49187 29 14.5C29 22.1833 23.0241 28.4709 15.4667 28.9683V17.4H19.3333V15.4667H15.4667V12.5667C15.4667 10.965 16.765 9.66667 18.3667 9.66667H19.3333V7.73333H18.3667C15.6973 7.73333 13.5333 9.89729 13.5333 12.5667V15.4667H9.66667V17.4H13.5333V28.9683C5.9759 28.4709 0 22.1833 0 14.5Z" fill="#0077FF"/>
</svg>
